mc23_13p6TeV.700770.Sh_2214_eegamma.deriv.DAOD_PHYSLITE.e8514_s4162_r14622_p6026
mc23_13p6TeV.700770.Sh_2214_eegamma.deriv.DAOD_PHYSLITE.e8514_s4159_r14799_p6026
mc23_13p6TeV.700771.Sh_2214_mumugamma.deriv.DAOD_PHYSLITE.e8514_s4162_r14622_p6026
mc23_13p6TeV.700771.Sh_2214_mumugamma.deriv.DAOD_PHYSLITE.e8514_s4159_r14799_p6026
mc23_13p6TeV.700772.Sh_2214_tautaugamma.deriv.DAOD_PHYSLITE.e8514_s4162_r14622_p6026
mc23_13p6TeV.700772.Sh_2214_tautaugamma.deriv.DAOD_PHYSLITE.e8514_s4159_r14799_p6026
